GET	        DELETE	    Mac	        200	        4936	    404
0.064110041	0.039221287	0.080079794	0.08375144	0.061312199	0.080936909
0.062697172	0.038782597	0.08011508	0.082788229	0.066298962	0.080846548
0.063859224	0.039687395	0.079909325	0.082192898	0.062466383	0.080862045
0.062166214	0.040380478	0.0805583	0.082194567	0.061057806	0.08100915
0.062042713	0.039904118	0.080196857	0.085214615	0.061578751	0.081223488
0.061886549	0.039511204	0.079312325	0.083024979	0.060950994	0.087236404
0.062711	0.039696217	0.087836742	0.083630323	0.060798645	0.08073473
0.062532902	0.041757584	0.079130888	0.082944393	0.061018705	0.081550598
0.062573195	0.040586233	0.07901597	0.082607508	0.061067581	0.080214024
0.06198597	0.039295912	0.080148458	0.081923962	0.06092906	0.080070019
